Testing pleiotropy v separate QTL in multiparental populations • qtl2pleio
…
The number of cores available will vary by computer. For example, on my Macbook pro computer, with 16GB RAM, I have access to 8 cores. If I use all 8, I can’t do other computing tasks, so I often set n_cores to 7.

To check how many cores are available on your computer, run this code.

parallel::detectCores()

Create a profile LOD plot to visualize results of two-dimensional scan

To visualize results from our two-dimensional scan, we calculate profile LOD for each trait. The code below makes use of the R package ggplot2 to plot profile LODs over the scan region.

out
#> # A tibble: 625 x 3
#>    Var1               Var2        loglik
#>    <chr>              <chr>        <dbl>
#>  1 JAX00108034        JAX00108034  -866.
#>  2 backupUNC031096286 JAX00108034  -863.
#>  3 JAX00525579        JAX00108034  -865.
#>  4 JAX00525718        JAX00108034  -865.
#>  5 UNC030088171       JAX00108034  -864.
#>  6 backupUNC030474070 JAX00108034  -864.
#>  7 backupUNC030474244 JAX00108034  -863.
#>  8 UNC030103315       JAX00108034  -862.
#>  9 UNC030107226       JAX00108034  -861.
#> 10 JAX00527615        JAX00108034  -861.
#> # … with 615 more rows
…
