Tidy the data frame outputted by scan_pvl for further analysis & plotting — tidy_scan_pvl • qtl2pleio
…
# grab phenotypes and covariates; ensure that covariates have names attribute
pheno <- iron$pheno
# leave-one-chromosome-out kinship matrices
kinship <- qtl2::calc_kinship(probs, "loco")$`1`
# get founder allele probabilites
probs <- qtl2::genoprob_to_alleleprob(probs)$`1`
ac <- matrix(as.numeric(iron$covar$sex == "m", ncol = 1))
colnames(ac) <- "sex"
rownames(ac) <- rownames(probs)
ss <- scan_pvl(probs = probs, pheno = pheno, kinship = kinship, addcovar = ac,
start_snp = 1, n_snp = 80, n_cores = 1)
#> starting covariance matrices estimation with data from 284 subjects.
#> covariance matrices estimation completed.
tidy_scan_pvl(ss, pm = map)
#> # A tibble: 240 x 4
#>    marker_position     lod trace      Trace     
#>    <list>            <dbl> <chr>      <chr>     
#>  1 <NULL>           0      pleiotropy pleiotropy
#>  2 <NULL>          -0.0326 pleiotropy pleiotropy
#>  3 <NULL>          -0.0681 pleiotropy pleiotropy
#>  4 <NULL>          -0.106  pleiotropy pleiotropy
#>  5 <NULL>          -0.148  pleiotropy pleiotropy
#>  6 <NULL>          -0.191  pleiotropy pleiotropy
#>  7 <NULL>          -0.237  pleiotropy pleiotropy
#>  8 <NULL>          -0.286  pleiotropy pleiotropy
#>  9 <NULL>          -0.336  pleiotropy pleiotropy
#> 10 <NULL>          -0.388  pleiotropy pleiotropy
#> # … with 230 more rows
…
